{
    "LocalDependencies": [],
    "LuaDependencies": [
        "node"
    ],
    "OtherDependencies": [],
    "timestamp": "1553197715",
    "version_info": {
        "build": 0,
        "major": 6,
        "minor": 0
    }
}