{
    "LocalDependencies": [],
    "LuaDependencies": [
        "db",
        "node"
    ],
    "OtherDependencies": [
        "training_tables.vmd"
    ],
    "timestamp": "1473829225",
    "version_info": {
        "build": 0,
        "major": 6,
        "minor": 0
    }
}