{
    "Samples": [
        {
            "Message": "{\n   \"datetime\": \"2006-10-02 07:43:11\",\n   \"sourceid\": \"000169\",\n   \"dtoname\": \"Employee\",\n   \"correlation_id\": \"4B2DECAD288D4F48E0530100007FCC8A\"\n}",
            "Name": ""
        },
        {
            "Message": "{\n   \"datetime\": \"2006-10-02 07:43:11\",\n   \"sourceid\": \"000168\",\n   \"dtoname\": \"Employee\",\n   \"correlation_id\": \"4B2DECAD288C4F48E0530100007FCC8A\"\n}",
            "Name": ""
        },
        {
            "Message": "{\n   \"datetime\": \"2006-10-02 07:43:11\",\n   \"sourceid\": \"000167\",\n   \"dtoname\": \"Employee\",\n   \"correlation_id\": \"4B2DECAD288B4F48E0530100007FCC8A\"\n}",
            "Name": ""
        },
        {
            "Message": "{\n   \"datetime\": \"2007-03-05 10:59:02\",\n   \"sourceid\": \"000166\",\n   \"dtoname\": \"Employee\",\n   \"correlation_id\": \"4B2DECAD288A4F48E0530100007FCC8A\"\n}",
            "Name": ""
        }
    ]
}